…
df <- tibble(
  who = map_chr(sw_people, "name"),
  eye_color = map_chr(sw_people, "eye_color"),
  species = map_chr(sw_people, "species", .default = NA)
)

df %>%
  group_by(species) %>%
  summarize(eye_color_n = n_distinct(eye_color)) %>%
  arrange(desc(eye_color_n))
#> # A tibble: 38 x 2
#>    species                         eye_color_n
#>    <chr>                                 <int>
#>  1 http://swapi.co/api/species/1/            6
#>  2 <NA>                                      5
#>  3 http://swapi.co/api/species/2/            3
#>  4 http://swapi.co/api/species/15/           2
#>  5 http://swapi.co/api/species/22/           2
#>  6 http://swapi.co/api/species/10/           1
#>  7 http://swapi.co/api/species/11/           1
#>  8 http://swapi.co/api/species/12/           1
#>  9 http://swapi.co/api/species/13/           1
#> 10 http://swapi.co/api/species/14/           1
#> # … with 28 more rows
…
